Offset(P)  Local Address             Remote Address            Pid
---------- ------------------------- ------------------------- ---
0x01f60850 0.0.0.0:0                 1.0.0.0:0                 36569092
0x01ffa850 172.16.150.20:1291        58.64.132.141:80          1024
0x0201f850 172.16.150.20:1292        172.16.150.10:445         4
0x02084e68 172.16.150.20:1281        172.16.150.10:389         628
0x020f8988 172.16.150.20:2862        172.16.150.10:135         696
0x02201008 172.16.150.20:1280        172.16.150.10:389         628
0x18615850 172.16.150.20:1292        172.16.150.10:445         4
0x189e8850 172.16.150.20:1291        58.64.132.141:80          1024
0x18a97008 172.16.150.20:1280        172.16.150.10:389         628
0x18b8e850 0.0.0.0:0                 1.0.0.0:0                 36569092
0x18dce988 172.16.150.20:2862        172.16.150.10:135         696
